<svg width="375" height="284" viewBox="0 0 375 284" fill="none" xmlns="http://www.w3.org/2000/svg">
<mask id="mask0_1591_6275" style="mask-type:alpha" maskUnits="userSpaceOnUse" x="0" y="0" width="375" height="284">
<path d="M0 0H375V284H0V0Z" fill="#F6F3FE"/>
</mask>
<g mask="url(#mask0_1591_6275)">
<path d="M0 65H375V284H0V65Z" fill="#F6F3FE"/>
<path d="M626.066 55.7318C605.025 28.2214 573.756 10.0725 539.135 5.27668C504.515 0.480857 469.378 9.43102 441.454 30.1585V30.1585L356.909 93.2255L272.504 30.1585C253.03 15.6982 229.866 6.84328 205.589 4.57844C181.313 2.3136 156.874 6.72751 134.991 17.3294C113.108 27.9313 94.638 44.3058 81.6347 64.632C68.6314 84.9583 61.6045 108.44 61.3352 132.465C61.0659 156.491 67.5647 180.12 80.1092 200.724C92.6537 221.329 110.752 238.101 132.392 249.177C154.033 260.252 178.366 265.196 202.688 263.46C227.009 261.724 250.366 253.376 270.16 239.343L270.77 238.881C272.036 237.98 273.302 237.033 274.544 236.086L356.98 174.589L439.251 236.086C440.493 237.033 441.759 237.98 443.025 238.881L443.635 239.343C469.235 257.483 500.585 265.983 532 263.302C563.415 260.621 592.814 246.936 614.867 224.729C636.921 202.522 650.167 173.263 652.204 142.258C654.242 111.253 644.935 80.5556 625.972 55.7318H626.066ZM232.764 185.77L232.014 186.348C222.149 193.479 210.466 197.768 198.271 198.736C186.075 199.704 173.846 197.313 162.95 191.829C152.054 186.345 142.92 177.985 136.567 167.682C130.214 157.379 126.893 145.539 126.974 133.483C127.055 121.428 130.536 109.632 137.027 99.4135C143.518 89.1946 152.765 80.9547 163.734 75.614C174.703 70.2733 186.962 68.0421 199.144 69.1694C211.325 70.2968 222.949 74.7384 232.717 81.9982V81.9982L302.327 133.907L232.764 185.77ZM586.115 142.986C584.524 154.117 580.032 164.651 573.077 173.561C566.122 182.471 556.943 189.453 546.433 193.825C535.924 198.198 524.444 199.811 513.113 198.509C501.782 197.207 490.987 193.033 481.781 186.394L481.031 185.817L411.467 133.954L481.078 82.0445C491.495 74.2982 504.01 69.7713 517.039 69.0366C530.069 68.3019 543.026 71.3926 554.272 77.9174C565.518 84.4422 574.547 94.1076 580.215 105.691C585.883 117.274 587.936 130.253 586.115 142.986V142.986Z" fill="white"/>
<path opacity="0.2" d="M626.066 55.7318C605.025 28.2214 573.756 10.0725 539.135 5.27668C504.515 0.480857 469.378 9.43102 441.454 30.1585V30.1585L356.909 93.2255L272.504 30.1585C253.03 15.6982 229.866 6.84328 205.589 4.57844C181.313 2.3136 156.874 6.72751 134.991 17.3294C113.108 27.9313 94.638 44.3058 81.6347 64.632C68.6314 84.9583 61.6045 108.44 61.3352 132.465C61.0659 156.491 67.5647 180.12 80.1092 200.724C92.6537 221.329 110.752 238.101 132.392 249.177C154.033 260.252 178.366 265.196 202.688 263.46C227.009 261.724 250.366 253.376 270.16 239.343L270.77 238.881C272.036 237.98 273.302 237.033 274.544 236.086L356.98 174.589L439.251 236.086C440.493 237.033 441.759 237.98 443.025 238.881L443.635 239.343C469.235 257.483 500.585 265.983 532 263.302C563.415 260.621 592.814 246.936 614.867 224.729C636.921 202.522 650.167 173.263 652.204 142.258C654.242 111.253 644.935 80.5556 625.972 55.7318H626.066ZM232.764 185.77L232.014 186.348C222.149 193.479 210.466 197.768 198.271 198.736C186.075 199.704 173.846 197.313 162.95 191.829C152.054 186.345 142.92 177.985 136.567 167.682C130.214 157.379 126.893 145.539 126.974 133.483C127.055 121.428 130.536 109.632 137.027 99.4135C143.518 89.1946 152.765 80.9547 163.734 75.614C174.703 70.2733 186.962 68.0421 199.144 69.1694C211.325 70.2968 222.949 74.7384 232.717 81.9982V81.9982L302.327 133.907L232.764 185.77ZM586.115 142.986C584.524 154.117 580.032 164.651 573.077 173.561C566.122 182.471 556.943 189.453 546.433 193.825C535.924 198.198 524.444 199.811 513.113 198.509C501.782 197.207 490.987 193.033 481.781 186.394L481.031 185.817L411.467 133.954L481.078 82.0445C491.495 74.2982 504.01 69.7713 517.039 69.0366C530.069 68.3019 543.026 71.3926 554.272 77.9174C565.518 84.4422 574.547 94.1076 580.215 105.691C585.883 117.274 587.936 130.253 586.115 142.986V142.986Z" fill="url(#paint0_linear_1591_6275)"/>
</g>
<defs>
<linearGradient id="paint0_linear_1591_6275" x1="479.532" y1="168.416" x2="86.141" y2="-26.1347" gradientUnits="userSpaceOnUse">
<stop stop-color="#FC2659"/>
<stop offset="0.526042" stop-color="#7759C2"/>
<stop offset="0.984375" stop-color="white"/>
</linearGradient>
</defs>
</svg>